{
    "category_children": "a:0:{}",
    "woocommerce_all_except_countries": "a:0:{}",
    "woocommerce_allow_bulk_remove_personal_data": "no",
    "woocommerce_allow_tracking": "no",
    "woocommerce_allowed_countries": "all",
    "woocommerce_anonymize_completed_orders": "a:2:{s:6:\"number\";s:0:\"\";s:4:\"unit\";s:6:\"months\";}",
    "woocommerce_api_enabled": "no",
    "woocommerce_calc_discounts_sequentially": "no",
    "woocommerce_calc_taxes": "no",
    "woocommerce_cart_page_id": "7",
    "woocommerce_cart_redirect_after_add": "no",
    "woocommerce_checkout_highlight_required_fields": "yes",
    "woocommerce_checkout_order_received_endpoint": "order-received",
    "woocommerce_checkout_page_id": "8",
    "woocommerce_checkout_pay_endpoint": "order-pay",
    "woocommerce_checkout_privacy_policy_text": "Your personal data will be used to process your order, support your experience throughout this website, and for other purposes described in our [privacy_policy].",
    "woocommerce_currency": "USD",
    "woocommerce_currency_pos": "left",
    "woocommerce_default_country": "US:CA",
    "woocommerce_default_customer_address": "base",
    "woocommerce_delete_inactive_accounts": "a:2:{s:6:\"number\";s:0:\"\";s:4:\"unit\";s:6:\"months\";}",
    "woocommerce_demo_store": "no",
    "woocommerce_dimension_unit": "cm",
    "woocommerce_downloads_add_hash_to_filename": "yes",
    "woocommerce_downloads_grant_access_after_payment": "yes",
    "woocommerce_downloads_require_login": "no",
    "woocommerce_email_background_color": "#f7f7f7",
    "woocommerce_email_base_color": "#96588a",
    "woocommerce_email_body_background_color": "#ffffff",
    "woocommerce_email_footer_text": "{site_title} &mdash; Built with {WooCommerce}",
    "woocommerce_email_from_address": "seclayer@gmail.com",
    "woocommerce_email_from_name": "Visual Media Alliance",
    "woocommerce_email_header_image": "",
    "woocommerce_email_text_color": "#3c3c3c",
    "woocommerce_enable_ajax_add_to_cart": "yes",
    "woocommerce_enable_checkout_login_reminder": "no",
    "woocommerce_enable_coupons": "yes",
    "woocommerce_enable_guest_checkout": "yes",
    "woocommerce_enable_myaccount_registration": "no",
    "woocommerce_enable_review_rating": "yes",
    "woocommerce_enable_reviews": "yes",
    "woocommerce_enable_shipping_calc": "yes",
    "woocommerce_enable_signup_and_login_from_checkout": "no",
    "woocommerce_erasure_request_removes_download_data": "no",
    "woocommerce_erasure_request_removes_order_data": "no",
    "woocommerce_file_download_method": "force",
    "woocommerce_force_ssl_checkout": "no",
    "woocommerce_gateway_order": "a:6:{s:4:\"bacs\";i:0;s:6:\"cheque\";i:1;s:3:\"cod\";i:2;s:6:\"paypal\";i:3;s:29:\"authorize_net_cim_credit_card\";i:4;s:24:\"authorize_net_cim_echeck\";i:5;}",
    "woocommerce_hide_out_of_stock_items": "no",
    "woocommerce_hold_stock_minutes": "60",
    "woocommerce_logout_endpoint": "customer-logout",
    "woocommerce_manage_stock": "yes",
    "woocommerce_maxmind_geolocation_settings": "a:1:{s:15:\"database_prefix\";s:32:\"EcGOB9zbtmWmGFCqENrNB4efVtF6jYFI\";}",
    "woocommerce_myaccount_add_payment_method_endpoint": "add-payment-method",
    "woocommerce_myaccount_delete_payment_method_endpoint": "delete-payment-method",
    "woocommerce_myaccount_downloads_endpoint": "downloads",
    "woocommerce_myaccount_edit_account_endpoint": "edit-account",
    "woocommerce_myaccount_edit_address_endpoint": "edit-address",
    "woocommerce_myaccount_lost_password_endpoint": "lost-password",
    "woocommerce_myaccount_orders_endpoint": "orders",
    "woocommerce_myaccount_page_id": "9",
    "woocommerce_myaccount_payment_methods_endpoint": "payment-methods",
    "woocommerce_myaccount_set_default_payment_method_endpoint": "set-default-payment-method",
    "woocommerce_myaccount_view_order_endpoint": "view-order",
    "woocommerce_notify_low_stock": "yes",
    "woocommerce_notify_low_stock_amount": "2",
    "woocommerce_notify_no_stock": "yes",
    "woocommerce_notify_no_stock_amount": "0",
    "woocommerce_onboarding_profile": "a:10:{s:12:\"setup_client\";b:0;s:8:\"industry\";a:2:{i:0;a:1:{s:4:\"slug\";s:22:\"education-and-learning\";}i:1;a:2:{s:4:\"slug\";s:5:\"other\";s:6:\"detail\";s:11:\"Trade Group\";}}s:13:\"product_types\";a:1:{i:0;s:9:\"downloads\";}s:13:\"product_count\";s:1:\"0\";s:14:\"selling_venues\";s:12:\"brick-mortar\";s:7:\"revenue\";s:16:\"more-than-250000\";s:19:\"business_extensions\";a:0:{}s:5:\"theme\";s:12:\"twentytwenty\";s:7:\"plugins\";s:7:\"skipped\";s:9:\"completed\";b:1;}",
    "woocommerce_permalinks": "a:5:{s:12:\"product_base\";s:7:\"product\";s:13:\"category_base\";s:16:\"product-category\";s:8:\"tag_base\";s:11:\"product-tag\";s:14:\"attribute_base\";s:0:\"\";s:22:\"use_verbose_page_rules\";b:0;}",
    "woocommerce_placeholder_image": "6",
    "woocommerce_price_decimal_sep": ".",
    "woocommerce_price_display_suffix": "",
    "woocommerce_price_num_decimals": "2",
    "woocommerce_price_thousand_sep": ",",
    "woocommerce_prices_include_tax": "no",
    "woocommerce_registration_generate_password": "yes",
    "woocommerce_registration_generate_username": "yes",
    "woocommerce_registration_privacy_policy_text": "Your personal data will be used to support your experience throughout this website, to manage access to your account, and for other purposes described in our [privacy_policy].",
    "woocommerce_review_rating_required": "yes",
    "woocommerce_review_rating_verification_label": "yes",
    "woocommerce_review_rating_verification_required": "no",
    "woocommerce_ship_to_countries": "",
    "woocommerce_ship_to_destination": "billing",
    "woocommerce_shipping_cost_requires_address": "no",
    "woocommerce_shipping_debug_mode": "no",
    "woocommerce_shipping_tax_class": "inherit",
    "woocommerce_shop_page_id": "7",
    "woocommerce_show_marketplace_suggestions": "no",
    "woocommerce_single_image_width": "600",
    "woocommerce_specific_allowed_countries": "a:0:{}",
    "woocommerce_specific_ship_to_countries": "a:0:{}",
    "woocommerce_stock_email_recipient": "seclayer@gmail.com",
    "woocommerce_stock_format": "",
    "woocommerce_store_address": "665 Third Street, Suite 500,",
    "woocommerce_store_address_2": "",
    "woocommerce_store_city": "San Francisco",
    "woocommerce_store_postcode": "94107",
    "woocommerce_task_list_tracked_completed_tasks": "a:3:{i:0;s:13:\"store_details\";i:1;s:8:\"products\";i:2;s:8:\"payments\";}",
    "woocommerce_task_list_welcome_modal_dismissed": "yes",
    "woocommerce_tax_based_on": "shipping",
    "woocommerce_tax_classes": "",
    "woocommerce_tax_display_cart": "excl",
    "woocommerce_tax_display_shop": "excl",
    "woocommerce_tax_round_at_subtotal": "no",
    "woocommerce_tax_total_display": "itemized",
    "woocommerce_terms_page_id": "",
    "woocommerce_thumbnail_image_width": "300",
    "woocommerce_trash_cancelled_orders": "",
    "woocommerce_trash_failed_orders": "",
    "woocommerce_trash_pending_orders": "",
    "woocommerce_unforce_ssl_checkout": "no",
    "woocommerce_weight_unit": "kg",
    ".label": "plugin-woocommerce"
}