{
    "reatlat_cub_admin_only": "",
    "reatlat_cub_advanced_api": "bitly",
    "reatlat_cub_bitly_api_key": "",
    "reatlat_cub_google_api_key": "",
    "reatlat_cub_keep_settings": "1",
    "reatlat_cub_metaboxes": "1",
    "reatlat_cub_show_creator": "",
    "reatlat_cub_show_useronly": "",
    "reatlat_cub_version": "",
    ".label": "plugin-campaign-url-builder"
}