{
    "admin_email": "seclayer@gmail.com",
    "blogdescription": "Together, We&#039;re Better.",
    "blogname": "Visual Media Alliance",
    "default_role": "subscriber",
    "gmt_offset": "",
    "start_of_week": "1",
    "time_format": "g:i a",
    "timezone_string": "America\/Los_Angeles",
    "users_can_register": "0",
    ".label": "settings-general"
}