{
    "sidebars_widgets": "a:2:{s:19:\"wp_inactive_widgets\";a:5:{i:0;s:8:\"search-2\";i:1;s:14:\"recent-posts-2\";i:2;s:10:\"archives-2\";i:3;s:12:\"categories-2\";i:4;s:6:\"meta-2\";}s:13:\"array_version\";i:3;}",
    "widget_archives": "a:2:{i:2;a:3:{s:5:\"title\";s:0:\"\";s:5:\"count\";i:0;s:8:\"dropdown\";i:0;}s:12:\"_multiwidget\";i:1;}",
    "widget_calendar": "a:1:{s:12:\"_multiwidget\";i:1;}",
    "widget_categories": "a:2:{i:2;a:4:{s:5:\"title\";s:0:\"\";s:5:\"count\";i:0;s:12:\"hierarchical\";i:0;s:8:\"dropdown\";i:0;}s:12:\"_multiwidget\";i:1;}",
    "widget_custom_html": "a:1:{s:12:\"_multiwidget\";i:1;}",
    "widget_mc4wp_form_widget": "a:1:{s:12:\"_multiwidget\";i:1;}",
    "widget_media_audio": "a:1:{s:12:\"_multiwidget\";i:1;}",
    "widget_media_gallery": "a:1:{s:12:\"_multiwidget\";i:1;}",
    "widget_media_image": "a:1:{s:12:\"_multiwidget\";i:1;}",
    "widget_media_video": "a:1:{s:12:\"_multiwidget\";i:1;}",
    "widget_meta": "a:2:{i:2;a:1:{s:5:\"title\";s:0:\"\";}s:12:\"_multiwidget\";i:1;}",
    "widget_nav_menu": "a:1:{s:12:\"_multiwidget\";i:1;}",
    "widget_pages": "a:1:{s:12:\"_multiwidget\";i:1;}",
    "widget_recent-comments": "a:2:{i:2;a:2:{s:5:\"title\";s:0:\"\";s:6:\"number\";i:5;}s:12:\"_multiwidget\";i:1;}",
    "widget_recent-posts": "a:2:{i:2;a:2:{s:5:\"title\";s:0:\"\";s:6:\"number\";i:5;}s:12:\"_multiwidget\";i:1;}",
    "widget_rss": "a:0:{}",
    "widget_search": "a:2:{i:2;a:1:{s:5:\"title\";s:0:\"\";}s:12:\"_multiwidget\";i:1;}",
    "widget_tag_cloud": "a:1:{s:12:\"_multiwidget\";i:1;}",
    "widget_text": "a:0:{}",
    "widget_tribe-events-adv-list-widget": "a:1:{s:12:\"_multiwidget\";i:1;}",
    "widget_tribe-events-countdown-widget": "a:1:{s:12:\"_multiwidget\";i:1;}",
    "widget_tribe-events-list-widget": "a:1:{s:12:\"_multiwidget\";i:1;}",
    "widget_tribe-events-venue-widget": "a:1:{s:12:\"_multiwidget\";i:1;}",
    "widget_tribe-mini-calendar": "a:1:{s:12:\"_multiwidget\";i:1;}",
    "widget_tribe-this-week-events-widget": "a:1:{s:12:\"_multiwidget\";i:1;}",
    "widget_woocommerce_layered_nav": "a:1:{s:12:\"_multiwidget\";i:1;}",
    "widget_woocommerce_layered_nav_filters": "a:1:{s:12:\"_multiwidget\";i:1;}",
    "widget_woocommerce_price_filter": "a:1:{s:12:\"_multiwidget\";i:1;}",
    "widget_woocommerce_product_categories": "a:1:{s:12:\"_multiwidget\";i:1;}",
    "widget_woocommerce_product_search": "a:1:{s:12:\"_multiwidget\";i:1;}",
    "widget_woocommerce_product_tag_cloud": "a:1:{s:12:\"_multiwidget\";i:1;}",
    "widget_woocommerce_products": "a:1:{s:12:\"_multiwidget\";i:1;}",
    "widget_woocommerce_rating_filter": "a:1:{s:12:\"_multiwidget\";i:1;}",
    "widget_woocommerce_recent_reviews": "a:1:{s:12:\"_multiwidget\";i:1;}",
    "widget_woocommerce_recently_viewed_products": "a:1:{s:12:\"_multiwidget\";i:1;}",
    "widget_woocommerce_top_rated_products": "a:1:{s:12:\"_multiwidget\";i:1;}",
    "widget_woocommerce_widget_cart": "a:1:{s:12:\"_multiwidget\";i:1;}",
    ".label": "widgets"
}